{
  "Name": "Незаконная торговля алкоголем",
  "Groups": [
    "Реклама и торговля"
  ],
  "Addressants": [
    "Губернатор"
  ],
  "Options": [
    {
      "Name": "Продажа несовершеннолетним",
      "Text": " - осуществляется продажа алкоголя несовершеннолетним гражданам\r\n"
    },
    {
      "Name": "Продажа в ночное время",
      "Text": " - осуществляется продажа алкоголя в ночное время\r\n"
    },
    {
      "Name": "Продажа вблизи школ, детсадов, больниц",
      "Text": " - торговля осуществляется вблизи школы / детского сада / медицинского учреждения\r\n"
    }
  ],
  "Actions": null,
  "RawText": "На объекте торговли по адресу <address><place> нарушаются правила продажи алкогольной продукции:\r\n<options>\r\nПрошу провести проверку по данному факту и привлечь нарушителя к ответственности в соответствии с законодательством.\r\n<photo>\r\n",
  "Description": ""
}