{
  "Name": "Площадки для выгула собак",
  "Groups": [
    "Зелёные зоны",
    "Отдых и спорт"
  ],
  "Addressants": [
    "В районную администрацию"
  ],
  "Options": null,
  "Actions": null,
  "RawText": "Прошу оборудовать огороженную площадку для выгула собак<position> по адресу <address><place>. Прошу предусмотреть специализированное покрытие площадки, а также  инфраструктуру, включающую оборудование для тренировки собак, урны для отходов и лотки с одноразовыми пакетами, скамейки для отдыха людей. В случае невозможности оборудования площадки в предлагаемом месте, прошу рассмотреть альтернативные территории поблизости.\r\n<photo>\r\n",
  "Description": ""
}