{
  "Name": "Разметка парковки",
  "Groups": [
    "Дороги и транспорт"
  ],
  "Addressants": [
    "В ДОДД",
    "В районную администрацию"
  ],
  "Options": null,
  "Actions": [
    {
      "Name": "Обновить разметку парковки",
      "Text": "обновить разметку парковочных мест"
    },
    {
      "Name": "Нанести разметку парковки",
      "Text": "нанести разметку парковочных мест"
    }
  ],
  "RawText": "Прошу <actions><position> по адресу <address><place>\r\n<photo>\r\n",
  "Description": ""
}