{
  "Name": "Светофоры",
  "Groups": [
    "Дороги и транспорт",
    "Пешеходная среда"
  ],
  "Addressants": [
    "В ДОДД"
  ],
  "Options": null,
  "Actions": [
    {
      "Name": "Установить светофор",
      "Text": "установить светофор"
    },
    {
      "Name": "Отремонтировать",
      "Text": "устранить неисправность светофора"
    },
    {
      "Name": "Отремонтировать электронное табло",
      "Text": "отремонтировать электронное табло светофора"
    }
  ],
  "RawText": "Прошу <actions> по адресу: <address><place>.\r\n<photo>\r\n",
  "Description": ""
}