{
  "Name": "Сосульки",
  "Groups": [
    "Зимние проблемы"
  ],
  "Addressants": [
    "В Жилком"
  ],
  "Options": null,
  "Actions": null,
  "RawText": "Прошу ликвидировать сосульки, а также устранить причины их образования по адресу <address><place>.\r\n<photo>\r\n",
  "Description": "Внимание! Если сосульки представляют угрозу жизни прохожих, помимо отправки обращения незамедлительно звоните <span id=\"phone_1\">004</span>."
}