{
  "Name": "Стихийная торговля",
  "Groups": [
    "Реклама и торговля"
  ],
  "Addressants": [
    "Губернатор"
  ],
  "Options": null,
  "Actions": null,
  "RawText": "Прошу проверить законность уличной торговой деятельности, осуществляющейся по адресу <address><place>. В случае выявления нарушения закона прошу устранить нарушение, привлечь нарушителей к ответственности в соответствии с законом, а также обязать уполномоченные организации проводить регулярную инспекцию объекта.\r\n<photo>\r\n",
  "Description": "Схему размещения легальных нестационарных торговых объектов во всех районах можно проверить в документах по адресу: http://www.cedipt.spb.ru/retail/materials/29095/"
}